<?xml version="1.0" encoding="utf-8"?>
<!-- Generator: Adobe Illustrator 17.0.0, SVG Export Plug-In . SVG Version: 6.00 Build 0)  -->
<!DOCTYPE svg PUBLIC "-//W3C//DTD SVG 1.1//EN" "http://www.w3.org/Graphics/SVG/1.1/DTD/svg11.dtd">
<svg version="1.1" id="Layer_1" xmlns="http://www.w3.org/2000/svg" xmlns:xlink="http://www.w3.org/1999/xlink" x="0px" y="0px"
	 width="1882px" height="417px" viewBox="0 0 1882 417" enable-background="new 0 0 1882 417" xml:space="preserve">
<g id="Entrance_1_">
	<path id="Entrance" fill="none" d="M1071.75,167.567H813.983v213.376h257.767V167.567"/>
	<g id="EntranceText">
		<path fill="none" d="M869.11,242.163v65.65h16.175c5.173,0,9.069-1.328,11.687-3.986c2.618-2.657,3.927-6.518,3.927-11.582v-5.346
			c0-3.501-0.577-6.455-1.73-8.863c-1.154-2.406-3.132-4.141-5.937-5.205c2.305-1.062,3.988-2.688,5.049-4.877
			c1.059-2.188,1.589-4.971,1.589-8.347v-2.345c0-5.064-1.201-8.847-3.6-11.348c-2.4-2.5-6.28-3.751-11.64-3.751H869.11z
			 M883.976,278.271c2.368,0,4.067,0.563,5.096,1.688c1.028,1.125,1.543,3.221,1.543,6.284v5.721c0,2.438-0.453,4.127-1.356,5.064
			c-0.904,0.938-2.229,1.407-3.974,1.407h-5.89v-20.164H883.976z M884.35,251.542c1.807,0,3.132,0.532,3.974,1.594
			c0.841,1.064,1.262,2.783,1.262,5.158v3.658c0,2.626-0.546,4.44-1.636,5.44c-1.091,1.001-2.603,1.501-4.535,1.501h-4.02v-17.35
			H884.35z"/>
		<path fill="none" d="M931.845,242.163l-7.947,24.197l-7.76-24.197h-10.659l10.752,31.887l-11.5,33.763h9.63l8.508-25.978
			l8.415,25.978h10.846l-11.5-33.763l10.752-31.887H931.845z"/>
		<path fill="none" d="M956.715,257.263c0-2.375,0.482-4.047,1.449-5.018c0.966-0.969,2.259-1.454,3.88-1.454
			c1.62,0,2.913,0.485,3.88,1.454c0.966,0.97,1.449,2.642,1.449,5.018v35.451c0,2.377-0.484,4.049-1.449,5.018
			c-0.967,0.97-2.26,1.454-3.88,1.454c-1.622,0-2.914-0.484-3.88-1.454c-0.967-0.969-1.449-2.641-1.449-5.018V257.263z
			 M946.43,292.057c0,5.315,1.34,9.395,4.02,12.239c2.679,2.846,6.545,4.267,11.594,4.267s8.913-1.421,11.594-4.267
			c2.679-2.844,4.02-6.924,4.02-12.239v-34.138c0-5.313-1.341-9.393-4.02-12.239c-2.681-2.844-6.545-4.267-11.594-4.267
			s-8.914,1.423-11.594,4.267c-2.681,2.846-4.02,6.926-4.02,12.239V292.057z"/>
		<path fill="none" d="M1024.219,316.629v-18.007h-4.488v-56.459h-28.797l-2.337,47.924c-0.126,1.939-0.359,3.564-0.701,4.877
			c-0.343,1.313-0.951,2.532-1.823,3.658h-4.02v18.007h10.004v-8.816h21.972v8.816H1024.219z M1000.564,251.542h8.695v47.08h-13.464
			c0.872-0.812,1.543-1.843,2.01-3.095c0.467-1.25,0.763-3.126,0.888-5.627L1000.564,251.542z"/>
	</g>
</g>
<g id="Room1">
	<path id="R1" fill="none" d="M793.535,249.455H692.504v129.075h101.031V249.455"/>
	<g id="R1H">
		<path fill="none" d="M752.219,355.65l0.714,7.921l0.013,0.119c0,0.006,0,0.006,0,0.013c0.088,0.587,0.602,1.037,1.216,1.037l0,0
			h0.364c0.013,0,0.031,0,0.05,0c0.013,0,0.031,0,0.05,0c0.395,0.031,0.714,0.331,0.764,0.718c0.006,0.025,0.006,0.056,0.006,0.081
			l0.658,8.221l0.019,0.237c0.1,0.575,0.602,1.012,1.21,1.012h3.246c0.614,0,1.122-0.45,1.216-1.037l0.013-0.187l0.658-8.234
			c0.006-0.038,0.006-0.069,0.013-0.106c0.05-0.381,0.37-0.675,0.758-0.7c0.013,0,0.031,0,0.05,0c0.012,0,0.031,0,0.05,0h0.37l0,0
			c0.602,0,1.103-0.431,1.21-1l0.019-0.237l0.708-7.859c0-1.043-0.852-1.893-1.899-1.893h-9.602
			C753.046,353.757,752.194,354.607,752.219,355.65z"/>
		<path fill="none" d="M763.099,347.966c0,2.315-1.883,4.192-4.205,4.192c-2.323,0-4.205-1.877-4.205-4.192s1.883-4.192,4.205-4.192
			C761.216,343.775,763.099,345.651,763.099,347.966z"/>
	</g>
	<g id="R1S">
		<path fill="none" d="M791.059,345.106l-16.811-3.593c-0.419-0.09-0.855,0.045-1.149,0.356l-6.963,7.353
			c-0.629,0.664-0.332,1.756,0.548,2.012l17.577,5.117c0.506,0.147,1.049-0.044,1.35-0.475l6.198-8.878
			C792.309,346.283,791.916,345.289,791.059,345.106z M784.028,354.641l-16.176-4.694l6.537-6.998l15.61,3.421L784.028,354.641z"/>
		<path fill="none" d="M784.274,358.587l-15.523-4.745l1.186,11.382c0,0.51,0.327,0.964,0.812,1.127l13.53,5.099
			c0.513,0.172,1.079-0.021,1.377-0.472l1.961-2.849c0.128-0.194,0.197-0.422,0.197-0.654l1.855-15.316l-3.985,5.954
			C785.365,358.555,784.797,358.747,784.274,358.587z"/>
		<path fill="none" d="M775.485,344.811l10.696,2.56l-3.384,4.666l-11.18-2.949L775.485,344.811z"/>
	</g>
	<g id="R1Number">
		<path fill="none" d="M713.897,270.407c0-1.381,0.28-2.353,0.843-2.918c0.561-0.563,1.313-0.845,2.256-0.845
			c0.942,0,1.694,0.282,2.256,0.845c0.562,0.564,0.843,1.536,0.843,2.918v20.614c0,1.382-0.281,2.354-0.843,2.918
			c-0.562,0.564-1.314,0.845-2.256,0.845c-0.943,0-1.695-0.281-2.256-0.845c-0.562-0.563-0.843-1.535-0.843-2.918V270.407z
			 M707.917,290.638c0,3.09,0.779,5.463,2.338,7.117c1.558,1.655,3.806,2.481,6.741,2.481c2.936,0,5.183-0.827,6.741-2.481
			c1.558-1.654,2.338-4.026,2.338-7.117v-19.85c0-3.09-0.78-5.462-2.338-7.117c-1.559-1.654-3.806-2.481-6.741-2.481
			c-2.936,0-5.183,0.827-6.741,2.481c-1.559,1.655-2.338,4.027-2.338,7.117V290.638z"/>
		<path fill="none" d="M733.632,270.679h4.621V299.8h5.98v-38.174h-4.023c-0.217,0.654-0.471,1.273-0.761,1.854
			c-0.291,0.582-0.671,1.091-1.142,1.527c-0.471,0.436-1.079,0.782-1.821,1.036c-0.743,0.255-1.695,0.382-2.854,0.382V270.679z"/>
	</g>
</g>
<g id="Room2">
	<g id="R2Number">
		<path fill="none" d="M604.72,267.364c0-1.381,0.28-2.353,0.843-2.917c0.562-0.563,1.313-0.845,2.256-0.845
			c0.942,0,1.694,0.282,2.256,0.845c0.562,0.564,0.843,1.536,0.843,2.917v20.614c0,1.382-0.281,2.354-0.843,2.918
			c-0.562,0.564-1.314,0.845-2.256,0.845c-0.943,0-1.695-0.281-2.256-0.845c-0.562-0.563-0.843-1.535-0.843-2.918V267.364z
			 M598.74,287.596c0,3.091,0.779,5.463,2.338,7.117c1.558,1.655,3.806,2.481,6.741,2.481s5.183-0.827,6.741-2.481
			c1.558-1.654,2.338-4.026,2.338-7.117v-19.85c0-3.09-0.78-5.462-2.338-7.117c-1.559-1.654-3.806-2.481-6.741-2.481
			s-5.183,0.827-6.741,2.481c-1.559,1.655-2.338,4.027-2.338,7.117V287.596z"/>
		<path fill="none" d="M631.739,272.818c-0.58,1.382-1.314,2.654-2.202,3.817c-0.889,1.164-1.84,2.263-2.854,3.299
			c-1.015,1.036-1.967,2.146-2.854,3.327c-0.888,1.182-1.622,2.481-2.202,3.899c-0.58,1.418-0.87,3.054-0.87,4.908v4.69h17.288
			v-5.453h-11.308c-0.036-0.181-0.054-0.454-0.054-0.818c0-1.054,0.29-2.063,0.87-3.027c0.579-0.963,1.313-1.954,2.202-2.972
			c0.888-1.017,1.848-2.09,2.881-3.217c1.033-1.126,1.993-2.353,2.881-3.681c0.888-1.327,1.622-2.799,2.202-4.417
			c0.579-1.617,0.87-3.426,0.87-5.426c0-3.09-0.753-5.462-2.256-7.117c-1.504-1.654-3.724-2.481-6.66-2.481
			c-2.936,0-5.156,0.827-6.66,2.481c-1.504,1.655-2.256,4.027-2.256,7.117v3.708h5.654v-4.09c0-1.381,0.28-2.353,0.843-2.917
			c0.562-0.563,1.313-0.845,2.256-0.845c0.942,0,1.694,0.3,2.256,0.9c0.561,0.6,0.843,1.754,0.843,3.463
			C632.609,269.818,632.319,271.437,631.739,272.818z"/>
	</g>
	<path id="R2" fill="none" d="M686.213,201.08l-85.426,10.074l-75.032,72.727v94.022h160.458V201.08"/>
	<g id="R2H">
		<path fill="none" d="M660.755,355.877l-0.708,7.906l-0.012,0.118c0,0.006,0,0.006,0,0.013c-0.087,0.586-0.596,1.035-1.204,1.035
			l0,0h-0.36c-0.012,0-0.031,0-0.049,0c-0.013,0-0.031,0-0.05,0c-0.391,0.031-0.708,0.33-0.757,0.717
			c-0.006,0.025-0.006,0.056-0.006,0.081l-0.652,8.205l-0.019,0.237c-0.099,0.574-0.596,1.01-1.198,1.01h-3.216
			c-0.608,0-1.111-0.449-1.204-1.035l-0.013-0.187l-0.652-8.218c-0.006-0.037-0.006-0.069-0.012-0.106
			c-0.05-0.38-0.366-0.673-0.751-0.698c-0.012,0-0.031,0-0.05,0c-0.012,0-0.031,0-0.05,0h-0.366l0,0
			c-0.596,0-1.092-0.43-1.198-0.998l-0.018-0.237l-0.701-7.844c0-1.041,0.844-1.889,1.881-1.889h9.51
			C659.936,353.988,660.78,354.836,660.755,355.877z"/>
		<path fill="none" d="M649.979,348.208c0,2.311,1.865,4.184,4.165,4.184c2.3,0,4.165-1.873,4.165-4.184
			c0-2.311-1.865-4.184-4.165-4.184C651.844,344.024,649.979,345.897,649.979,348.208z"/>
	</g>
	<g id="R2S">
		<path fill="none" d="M622.285,345.353l16.651-3.586c0.415-0.089,0.846,0.045,1.138,0.355l6.897,7.339
			c0.623,0.663,0.328,1.753-0.543,2.008l-17.409,5.108c-0.501,0.147-1.039-0.044-1.337-0.474l-6.139-8.861
			C621.047,346.527,621.437,345.536,622.285,345.353z M629.249,354.87l16.022-4.685l-6.475-6.985l-15.461,3.415L629.249,354.87z"/>
		<path fill="none" d="M629.006,358.808l15.375-4.735l-1.175,11.361c0,0.509-0.323,0.962-0.804,1.124L629,371.647
			c-0.508,0.172-1.068-0.021-1.364-0.471l-1.942-2.844c-0.127-0.194-0.195-0.421-0.195-0.653l-1.837-15.287l3.947,5.942
			C627.925,358.777,628.487,358.967,629.006,358.808z"/>
		<path fill="none" d="M637.711,345.058l-10.594,2.555l3.352,4.657l11.073-2.944L637.711,345.058z"/>
	</g>
</g>
<g id="Room3">
	<g id="Numbers">
		<g id="R3Number">
			<path fill="none" d="M300.438,257.224c0-1.381,0.28-2.353,0.843-2.918c0.561-0.563,1.313-0.845,2.256-0.845
				c0.942,0,1.694,0.282,2.256,0.845c0.561,0.564,0.843,1.536,0.843,2.918v20.614c0,1.382-0.281,2.354-0.843,2.918
				c-0.562,0.564-1.314,0.845-2.256,0.845c-0.943,0-1.695-0.281-2.256-0.845c-0.562-0.563-0.843-1.536-0.843-2.918V257.224z
				 M294.458,277.456c0,3.091,0.779,5.463,2.338,7.117c1.558,1.655,3.806,2.481,6.741,2.481c2.936,0,5.183-0.827,6.741-2.481
				c1.558-1.654,2.338-4.026,2.338-7.117v-19.85c0-3.09-0.78-5.462-2.338-7.117c-1.559-1.654-3.806-2.481-6.741-2.481
				c-2.936,0-5.183,0.827-6.741,2.481c-1.559,1.655-2.338,4.027-2.338,7.117V277.456z"/>
			<path fill="none" d="M328.001,259.951c0,1.527-0.318,2.582-0.951,3.163c-0.635,0.582-1.514,0.872-2.637,0.872h-2.338v5.453h2.012
				c1.377,0,2.373,0.364,2.99,1.091c0.616,0.728,0.924,1.982,0.924,3.763v2.999c0,1.709-0.281,2.855-0.843,3.436
				c-0.562,0.582-1.314,0.873-2.256,0.873c-0.943,0-1.695-0.281-2.256-0.845c-0.562-0.563-0.843-1.536-0.843-2.918v-3.545h-5.654
				v3.163c0,3.091,0.752,5.463,2.256,7.117c1.504,1.655,3.724,2.481,6.66,2.481c2.936,0,5.155-0.827,6.66-2.481
				c1.504-1.654,2.256-4.026,2.256-7.117v-2.999c0-1.963-0.318-3.626-0.951-4.99c-0.635-1.363-1.712-2.372-3.235-3.027
				c2.791-1.163,4.186-3.781,4.186-7.853v-0.982c0-3.09-0.753-5.462-2.256-7.117c-1.504-1.654-3.724-2.481-6.66-2.481
				c-2.936,0-5.156,0.827-6.66,2.481c-1.504,1.655-2.256,4.027-2.256,7.117v2.072h5.654v-2.454c0-1.381,0.28-2.353,0.843-2.918
				c0.561-0.563,1.313-0.845,2.256-0.845c0.942,0,1.694,0.3,2.256,0.9c0.561,0.6,0.843,1.754,0.843,3.463V259.951z"/>
		</g>
	</g>
	<g id="Rooms">
		<path id="R3" fill="none" d="M324.337,121.788L169.808,314.724v62.221h240.685V153.944l-6.005-19.369l-24.651,7.65l-19.689-14.736
			l-19.526,6.487L324.337,121.788"/>
	</g>
	<g id="R3S">
		<path fill="none" d="M287.676,172.969l16.651-3.586c0.415-0.089,0.846,0.045,1.138,0.355l6.897,7.339
			c0.623,0.663,0.328,1.753-0.543,2.008l-17.409,5.108c-0.501,0.147-1.039-0.044-1.337-0.474l-6.139-8.861
			C286.438,174.143,286.828,173.152,287.676,172.969z M294.64,182.486l16.022-4.685l-6.475-6.985l-15.461,3.415L294.64,182.486z"/>
		<path fill="none" d="M294.397,186.424l15.375-4.735l-1.175,11.361c0,0.509-0.324,0.962-0.804,1.124l-13.401,5.09
			c-0.508,0.172-1.068-0.021-1.364-0.471l-1.942-2.844c-0.127-0.194-0.195-0.421-0.195-0.653l-1.837-15.287L293,185.95
			C293.316,186.393,293.878,186.584,294.397,186.424z"/>
		<path fill="none" d="M303.102,172.674l-10.595,2.555l3.352,4.657l11.073-2.944L303.102,172.674z"/>
	</g>
	<g id="R3H">
		<path fill="none" d="M326.146,183.493l-0.708,7.906l-0.012,0.118c0,0.006,0,0.006,0,0.012c-0.087,0.586-0.596,1.035-1.204,1.035
			l0,0h-0.36c-0.012,0-0.031,0-0.049,0c-0.013,0-0.031,0-0.05,0c-0.391,0.031-0.708,0.33-0.757,0.717
			c-0.006,0.025-0.006,0.056-0.006,0.081l-0.652,8.206l-0.019,0.237c-0.099,0.574-0.596,1.01-1.198,1.01h-3.215
			c-0.608,0-1.111-0.449-1.204-1.035l-0.012-0.187l-0.652-8.218c-0.006-0.038-0.006-0.069-0.012-0.106
			c-0.05-0.38-0.366-0.673-0.751-0.698c-0.012,0-0.031,0-0.05,0c-0.013,0-0.031,0-0.05,0h-0.366l0,0
			c-0.596,0-1.093-0.43-1.198-0.998l-0.019-0.237l-0.702-7.844c0-1.041,0.844-1.889,1.881-1.889h9.51
			C325.327,181.604,326.171,182.452,326.146,183.493z"/>
		<path fill="none" d="M315.37,175.824c0,2.311,1.865,4.184,4.165,4.184c2.3,0,4.165-1.873,4.165-4.184s-1.865-4.184-4.165-4.184
			C317.235,171.64,315.37,173.513,315.37,175.824z"/>
	</g>
</g>
<g id="Room4">
	<g id="R4Number">
		<path fill="none" d="M103.312,171.032c0-1.381,0.28-2.354,0.843-2.918c0.561-0.563,1.313-0.845,2.256-0.845
			c0.942,0,1.694,0.282,2.256,0.845c0.561,0.564,0.843,1.536,0.843,2.918v20.614c0,1.382-0.281,2.354-0.843,2.918
			c-0.562,0.564-1.314,0.845-2.256,0.845c-0.943,0-1.695-0.281-2.256-0.845c-0.562-0.563-0.843-1.535-0.843-2.918V171.032z
			 M97.331,191.264c0,3.091,0.779,5.463,2.338,7.117c1.558,1.655,3.806,2.481,6.741,2.481c2.936,0,5.183-0.827,6.741-2.481
			c1.558-1.654,2.338-4.026,2.338-7.117v-19.85c0-3.09-0.78-5.462-2.338-7.117c-1.559-1.654-3.806-2.481-6.741-2.481
			c-2.936,0-5.183,0.827-6.741,2.481c-1.559,1.655-2.338,4.027-2.338,7.117V191.264z"/>
		<path fill="none" d="M117.936,193.5h11.526v6.926h5.872V193.5h2.827v-5.453h-2.827v-25.794h-6.524l-10.873,25.794V193.5z
			 M123.427,188.047l6.035-14.342v14.342H123.427z"/>
	</g>
	<path id="R4" fill="none" d="M200.429,99.757H44v274.554h113.915v-76.45l114.138-143.287L200.429,99.757"/>
	<g id="R4H">
		<path fill="none" d="M171.961,218.757l0.714,7.921l0.013,0.119c0,0.006,0,0.006,0,0.013c0.088,0.587,0.602,1.037,1.216,1.037l0,0
			h0.364c0.012,0,0.031,0,0.05,0c0.013,0,0.031,0,0.05,0c0.395,0.031,0.715,0.331,0.765,0.718c0.006,0.025,0.006,0.056,0.006,0.081
			l0.658,8.221l0.019,0.237c0.1,0.575,0.602,1.012,1.21,1.012h3.246c0.614,0,1.122-0.45,1.216-1.037l0.013-0.187l0.658-8.234
			c0.006-0.038,0.006-0.069,0.013-0.106c0.05-0.381,0.37-0.675,0.758-0.7c0.013,0,0.031,0,0.05,0c0.012,0,0.031,0,0.05,0h0.37l0,0
			c0.602,0,1.103-0.431,1.21-1l0.019-0.237l0.708-7.859c0-1.043-0.852-1.893-1.899-1.893h-9.601
			C172.788,216.864,171.936,217.714,171.961,218.757z"/>
		<path fill="none" d="M182.841,211.073c0,2.315-1.883,4.192-4.205,4.192c-2.322,0-4.205-1.877-4.205-4.192s1.883-4.192,4.205-4.192
			C180.958,206.882,182.841,208.758,182.841,211.073z"/>
	</g>
	<g id="R4S">
		<path fill="none" d="M210.801,208.213l-16.811-3.593c-0.419-0.089-0.854,0.045-1.149,0.356l-6.963,7.353
			c-0.629,0.664-0.332,1.756,0.548,2.012l17.577,5.117c0.506,0.147,1.049-0.044,1.35-0.475l6.198-8.878
			C212.051,209.39,211.657,208.396,210.801,208.213z M203.77,217.748l-16.176-4.694l6.537-6.998l15.61,3.421L203.77,217.748z"/>
		<path fill="none" d="M204.015,221.694l-15.523-4.745l1.186,11.382c0,0.51,0.327,0.964,0.812,1.127l13.53,5.099
			c0.513,0.172,1.079-0.021,1.377-0.472l1.961-2.849c0.129-0.194,0.197-0.422,0.197-0.654l1.855-15.316l-3.985,5.954
			C205.106,221.662,204.539,221.853,204.015,221.694z"/>
		<path fill="none" d="M195.226,207.918l10.696,2.56l-3.384,4.666l-11.18-2.949L195.226,207.918z"/>
	</g>
</g>
<g id="Room5">
	<g id="R5Number">
		<path fill="none" d="M648.189,77.742c0-1.381,0.28-2.353,0.843-2.918c0.561-0.563,1.313-0.845,2.256-0.845
			c0.942,0,1.694,0.282,2.256,0.845c0.561,0.564,0.843,1.536,0.843,2.918v20.614c0,1.382-0.281,2.354-0.843,2.918
			c-0.562,0.564-1.314,0.845-2.256,0.845c-0.943,0-1.695-0.281-2.256-0.845c-0.562-0.563-0.843-1.535-0.843-2.918V77.742z
			 M642.208,97.974c0,3.09,0.779,5.463,2.338,7.117c1.558,1.655,3.806,2.481,6.741,2.481c2.936,0,5.183-0.826,6.741-2.481
			c1.558-1.654,2.338-4.026,2.338-7.117v-19.85c0-3.09-0.78-5.462-2.338-7.117c-1.559-1.654-3.806-2.481-6.741-2.481
			c-2.936,0-5.183,0.827-6.741,2.481c-1.559,1.655-2.338,4.027-2.338,7.117V97.974z"/>
		<path fill="none" d="M663.954,94.811v3.163c0,3.09,0.752,5.463,2.256,7.117c1.504,1.655,3.724,2.481,6.66,2.481
			c2.936,0,5.156-0.826,6.66-2.481c1.503-1.654,2.256-4.026,2.256-7.117v-8.507c0-2.836-0.553-4.998-1.658-6.49
			c-1.106-1.49-2.764-2.236-4.974-2.236c-2.356,0-4.096,0.927-5.219,2.781l0.489-9.107h10.384v-5.453h-15.766l-1.087,22.141h5.654
			v-1.145c0-1.381,0.28-2.353,0.843-2.918c0.561-0.563,1.313-0.845,2.256-0.845c0.942,0,1.694,0.282,2.256,0.845
			c0.562,0.564,0.843,1.536,0.843,2.918v8.398c0,1.382-0.281,2.345-0.843,2.89c-0.562,0.545-1.314,0.818-2.256,0.818
			c-0.943,0-1.695-0.273-2.256-0.818c-0.562-0.545-0.843-1.508-0.843-2.89v-3.545H663.954z"/>
	</g>
	<path id="R5" fill="none" d="M793.222,45H525.795v77.415l63.434,65.83l84.283-8.227l13.83-10.156L677.278,152l18.484-11.81h97.46
		V45"/>
	<g id="R5H">
		<path fill="none" d="M645.063,157.916l0.714,7.921l0.012,0.119c0,0.006,0,0.006,0,0.012c0.088,0.587,0.602,1.037,1.216,1.037l0,0
			h0.364c0.013,0,0.031,0,0.05,0c0.013,0,0.031,0,0.05,0c0.395,0.031,0.715,0.331,0.765,0.718c0.006,0.025,0.006,0.056,0.006,0.081
			l0.658,8.221l0.019,0.237c0.1,0.575,0.602,1.012,1.21,1.012h3.246c0.614,0,1.122-0.45,1.216-1.037l0.013-0.187l0.658-8.234
			c0.006-0.038,0.006-0.069,0.013-0.106c0.05-0.381,0.37-0.675,0.758-0.7c0.012,0,0.031,0,0.05,0c0.013,0,0.031,0,0.05,0h0.37l0,0
			c0.602,0,1.103-0.431,1.21-1l0.019-0.237l0.708-7.859c0-1.043-0.852-1.893-1.899-1.893h-9.602
			C645.891,156.023,645.038,156.872,645.063,157.916z"/>
		<path fill="none" d="M655.943,150.232c0,2.315-1.883,4.192-4.205,4.192s-4.205-1.877-4.205-4.192c0-2.315,1.883-4.192,4.205-4.192
			S655.943,147.917,655.943,150.232z"/>
	</g>
	<g id="R5S">
		<path fill="none" d="M683.904,147.372l-16.811-3.593c-0.419-0.089-0.855,0.046-1.149,0.356l-6.963,7.353
			c-0.629,0.664-0.332,1.756,0.548,2.012l17.577,5.117c0.506,0.147,1.049-0.044,1.35-0.475l6.198-8.878
			C685.153,148.548,684.76,147.555,683.904,147.372z M676.872,156.907l-16.176-4.694l6.537-6.998l15.61,3.421L676.872,156.907z"/>
		<path fill="none" d="M677.118,160.852l-15.523-4.745l1.186,11.382c0,0.51,0.327,0.964,0.812,1.127l13.53,5.099
			c0.513,0.172,1.079-0.022,1.377-0.472l1.961-2.849c0.128-0.194,0.197-0.422,0.197-0.654l1.855-15.316l-3.985,5.954
			C678.209,160.821,677.642,161.012,677.118,160.852z"/>
		<path fill="none" d="M668.329,147.076l10.696,2.56l-3.384,4.666l-11.18-2.949L668.329,147.076z"/>
	</g>
</g>
<g id="Room6">
	<g id="R6Number">
		<path fill="none" d="M1115.226,97.009c0-1.381,0.28-2.353,0.843-2.918c0.562-0.563,1.313-0.845,2.256-0.845
			c0.942,0,1.694,0.282,2.256,0.845c0.562,0.564,0.843,1.536,0.843,2.918v20.614c0,1.382-0.281,2.354-0.843,2.918
			c-0.562,0.564-1.314,0.845-2.256,0.845c-0.943,0-1.695-0.281-2.256-0.845c-0.562-0.563-0.843-1.535-0.843-2.918V97.009z
			 M1109.246,117.241c0,3.09,0.779,5.463,2.338,7.117c1.558,1.655,3.806,2.481,6.741,2.481s5.183-0.826,6.741-2.481
			c1.558-1.654,2.338-4.026,2.338-7.117V97.39c0-3.09-0.78-5.462-2.338-7.117c-1.559-1.654-3.806-2.481-6.741-2.481
			s-5.183,0.827-6.741,2.481c-1.559,1.655-2.338,4.027-2.338,7.117V117.241z"/>
		<path fill="none" d="M1130.883,117.241c0,3.09,0.779,5.463,2.338,7.117c1.558,1.655,3.806,2.481,6.741,2.481
			s5.183-0.826,6.741-2.481c1.558-1.654,2.338-4.026,2.338-7.117v-6.98c0-2.836-0.553-4.998-1.658-6.49
			c-1.106-1.49-2.764-2.236-4.974-2.236c-2.646,0-4.495,1.127-5.545,3.381v-6.98c0-1.817,0.29-3.054,0.87-3.708
			c0.579-0.654,1.395-0.982,2.446-0.982c0.942,0,1.694,0.282,2.256,0.845c0.561,0.564,0.843,1.536,0.843,2.918v1.363h5.654V97.39
			c0-3.09-0.753-5.462-2.256-7.117c-1.504-1.654-3.724-2.481-6.66-2.481c-3.118,0-5.419,0.845-6.905,2.536
			c-1.487,1.691-2.229,4.154-2.229,7.389V117.241z M1142.218,107.834c0.562,0.564,0.843,1.536,0.843,2.918v6.871
			c0,1.382-0.281,2.345-0.843,2.89c-0.562,0.545-1.314,0.818-2.256,0.818c-0.943,0-1.695-0.273-2.256-0.818
			c-0.562-0.545-0.843-1.508-0.843-2.89v-6.871c0-1.381,0.28-2.353,0.843-2.918c0.561-0.563,1.313-0.845,2.256-0.845
			C1140.904,106.988,1141.656,107.27,1142.218,107.834z"/>
	</g>
	<path id="R6" fill="none" d="M1290.624,70.04h-198.341v82.201h142.712h5.37v12.998c2.724,0.199,5.307,0.296,7.751,0.296
		c36.096,0,42.507-21.046,42.507-42.735V70.04"/>
	<g id="R6H">
		<path fill="none" d="M1175.788,100.116l0.714,7.921l0.013,0.119c0,0.006,0,0.006,0,0.013c0.088,0.587,0.602,1.037,1.216,1.037l0,0
			h0.363c0.013,0,0.031,0,0.05,0c0.013,0,0.031,0,0.05,0c0.395,0.031,0.714,0.331,0.765,0.718c0.006,0.025,0.006,0.056,0.006,0.081
			l0.658,8.221l0.019,0.237c0.1,0.575,0.602,1.012,1.21,1.012h3.246c0.614,0,1.122-0.45,1.216-1.037l0.013-0.187l0.658-8.234
			c0.006-0.038,0.006-0.069,0.012-0.106c0.05-0.381,0.37-0.675,0.758-0.7c0.012,0,0.031,0,0.05,0c0.013,0,0.031,0,0.05,0h0.37l0,0
			c0.602,0,1.103-0.431,1.21-1l0.019-0.237l0.708-7.859c0-1.043-0.852-1.893-1.899-1.893h-9.602
			C1176.615,98.224,1175.762,99.073,1175.788,100.116z"/>
		<path fill="none" d="M1186.668,92.433c0,2.315-1.883,4.192-4.205,4.192c-2.323,0-4.205-1.877-4.205-4.192
			c0-2.315,1.883-4.192,4.205-4.192C1184.785,88.241,1186.668,90.118,1186.668,92.433z"/>
	</g>
	<g id="R6S">
		<path fill="none" d="M1214.628,89.572l-16.811-3.593c-0.419-0.089-0.855,0.045-1.149,0.356l-6.963,7.353
			c-0.629,0.664-0.332,1.756,0.548,2.012l17.577,5.117c0.506,0.147,1.049-0.044,1.35-0.475l6.198-8.877
			C1215.877,90.749,1215.484,89.755,1214.628,89.572z M1207.597,99.107l-16.176-4.694l6.537-6.998l15.61,3.421L1207.597,99.107z"/>
		<path fill="none" d="M1207.843,103.053l-15.523-4.744l1.186,11.382c0,0.51,0.327,0.964,0.812,1.127l13.53,5.099
			c0.513,0.172,1.079-0.022,1.377-0.472l1.961-2.849c0.128-0.194,0.197-0.422,0.197-0.654l1.855-15.316l-3.985,5.954
			C1208.933,103.022,1208.366,103.213,1207.843,103.053z"/>
		<path fill="none" d="M1199.053,89.277l10.696,2.56l-3.384,4.666l-11.18-2.949L1199.053,89.277z"/>
	</g>
</g>
<g id="Room7">
	<g id="R7Number">
		<path fill="none" d="M1435.682,109.177c0-1.381,0.28-2.353,0.843-2.918c0.562-0.563,1.313-0.845,2.256-0.845
			c0.942,0,1.694,0.282,2.256,0.845c0.561,0.564,0.843,1.536,0.843,2.918v20.614c0,1.382-0.281,2.354-0.843,2.918
			c-0.562,0.564-1.314,0.845-2.256,0.845c-0.943,0-1.695-0.281-2.256-0.845c-0.562-0.563-0.843-1.536-0.843-2.918V109.177z
			 M1429.702,129.409c0,3.091,0.779,5.463,2.338,7.117c1.558,1.655,3.806,2.481,6.741,2.481s5.183-0.827,6.741-2.481
			c1.558-1.654,2.338-4.026,2.338-7.117v-19.85c0-3.09-0.78-5.462-2.338-7.117c-1.559-1.654-3.806-2.481-6.741-2.481
			s-5.183,0.827-6.741,2.481c-1.559,1.655-2.338,4.027-2.338,7.117V129.409z"/>
		<path fill="none" d="M1451.339,100.397v5.453h11.906l-8.753,32.72h5.98l8.807-32.938v-5.235H1451.339z"/>
	</g>
	<path id="R7" fill="none" d="M1416.446,69.563l-18.91,21.805l-46.611-16.619l-34.984,19.817l34.177,60.049h189.762
		c0,0,8.231-46.118,53.145-73.754l-21.4-9.301l-34.623,13.931l-30.466-10.476l-25.626,16.21l-35.59-20.196L1416.446,69.563"/>
	<g id="R7H">
		<path fill="none" d="M1344.609,100.116l0.714,7.921l0.013,0.119c0,0.006,0,0.006,0,0.013c0.088,0.587,0.602,1.037,1.216,1.037l0,0
			h0.363c0.013,0,0.031,0,0.05,0c0.013,0,0.031,0,0.05,0c0.395,0.031,0.714,0.331,0.765,0.718c0.006,0.025,0.006,0.056,0.006,0.081
			l0.658,8.221l0.019,0.237c0.1,0.575,0.602,1.012,1.209,1.012h3.246c0.614,0,1.122-0.45,1.216-1.037l0.012-0.187l0.658-8.234
			c0.006-0.038,0.006-0.069,0.012-0.106c0.05-0.381,0.37-0.675,0.758-0.7c0.013,0,0.031,0,0.05,0c0.013,0,0.031,0,0.05,0h0.37l0,0
			c0.602,0,1.103-0.431,1.21-1l0.019-0.237l0.708-7.859c0-1.043-0.852-1.893-1.899-1.893h-9.601
			C1345.436,98.224,1344.583,99.073,1344.609,100.116z"/>
		<path fill="none" d="M1355.489,92.433c0,2.315-1.883,4.192-4.205,4.192s-4.205-1.877-4.205-4.192c0-2.315,1.883-4.192,4.205-4.192
			S1355.489,90.118,1355.489,92.433z"/>
	</g>
	<g id="R7S">
		<path fill="none" d="M1383.449,89.572l-16.811-3.593c-0.419-0.089-0.855,0.045-1.149,0.356l-6.963,7.353
			c-0.629,0.664-0.332,1.756,0.548,2.012l17.577,5.117c0.506,0.147,1.049-0.044,1.35-0.475l6.198-8.877
			C1384.698,90.749,1384.305,89.755,1383.449,89.572z M1376.418,99.107l-16.176-4.694l6.537-6.998l15.61,3.421L1376.418,99.107z"/>
		<path fill="none" d="M1376.663,103.053l-15.523-4.744l1.186,11.382c0,0.51,0.327,0.964,0.812,1.127l13.53,5.099
			c0.513,0.172,1.079-0.022,1.377-0.472l1.961-2.849c0.128-0.194,0.197-0.422,0.197-0.654l1.855-15.316l-3.985,5.954
			C1377.754,103.022,1377.187,103.213,1376.663,103.053z"/>
		<path fill="none" d="M1367.874,89.277l10.696,2.56l-3.384,4.666l-11.18-2.949L1367.874,89.277z"/>
	</g>
</g>
<g id="Room8">
	<g id="R8Number">
		<path fill="none" d="M1435.682,188.271c0-1.381,0.28-2.353,0.843-2.918c0.562-0.563,1.313-0.845,2.256-0.845
			c0.942,0,1.694,0.282,2.256,0.845c0.561,0.564,0.843,1.536,0.843,2.918v20.614c0,1.382-0.281,2.354-0.843,2.918
			c-0.562,0.564-1.314,0.845-2.256,0.845c-0.943,0-1.695-0.281-2.256-0.845c-0.562-0.563-0.843-1.535-0.843-2.918V188.271z
			 M1429.702,208.503c0,3.091,0.779,5.463,2.338,7.117c1.558,1.655,3.806,2.481,6.741,2.481s5.183-0.827,6.741-2.481
			c1.558-1.654,2.338-4.026,2.338-7.117v-19.85c0-3.09-0.78-5.462-2.338-7.117c-1.559-1.654-3.806-2.481-6.741-2.481
			s-5.183,0.827-6.741,2.481c-1.559,1.655-2.338,4.027-2.338,7.117V208.503z"/>
		<path fill="none" d="M1469.661,205.503c0-1.854-0.29-3.463-0.87-4.826c-0.58-1.363-1.522-2.408-2.827-3.136
			c2.464-1.381,3.697-3.944,3.697-7.689v-1.2c0-3.09-0.797-5.462-2.392-7.117c-1.595-1.654-3.914-2.481-6.959-2.481
			c-3.045,0-5.364,0.827-6.959,2.481c-1.595,1.655-2.392,4.027-2.392,7.117v1.2c0,3.781,1.232,6.345,3.697,7.689
			c-1.305,0.728-2.248,1.772-2.827,3.136c-0.58,1.363-0.87,2.972-0.87,4.826v2.999c0,3.091,0.797,5.463,2.392,7.117
			c1.594,1.655,3.914,2.481,6.959,2.481c3.044,0,5.364-0.827,6.959-2.481c1.595-1.654,2.392-4.026,2.392-7.117V205.503z
			 M1456.939,204.794c0-1.527,0.299-2.626,0.897-3.299c0.598-0.672,1.422-1.009,2.474-1.009c1.051,0,1.876,0.337,2.474,1.009
			c0.598,0.673,0.897,1.772,0.897,3.299v3.545c-0.036,1.709-0.372,2.855-1.006,3.436c-0.635,0.582-1.423,0.873-2.365,0.873
			c-0.943,0-1.74-0.291-2.392-0.873c-0.652-0.581-0.979-1.726-0.979-3.436V204.794z M1456.939,188.87
			c0-1.708,0.326-2.863,0.979-3.463c0.652-0.6,1.449-0.9,2.392-0.9c0.942,0,1.74,0.3,2.392,0.9c0.652,0.6,0.979,1.754,0.979,3.463
			v2.127c0,1.527-0.326,2.582-0.979,3.163c-0.652,0.582-1.45,0.873-2.392,0.873c-0.979,0-1.786-0.291-2.419-0.873
			c-0.635-0.581-0.951-1.636-0.951-3.163V188.87z"/>
	</g>
	<path id="R8" fill="none" d="M1538.261,161.12H1350.65v109.359l17.43-2.699v-9.27c24.039-0.572,47.577-18.045,85.408-18.045
		c9.556,0,20.023,1.115,31.641,3.898l-1.578,5.223c38.171,11.939,64.611,50.365,64.611,50.365l8.084-5.739l15.698,10.9l8.987-13.582
		C1523.657,245.11,1538.261,161.12,1538.261,161.12 M1538.261,161.12L1538.261,161.12"/>
	<g id="R8H">
		<path fill="none" d="M1554.394,249.405l-0.708,7.906l-0.012,0.118c0,0.006,0,0.006,0,0.012c-0.087,0.586-0.596,1.035-1.204,1.035
			l0,0h-0.36c-0.012,0-0.031,0-0.05,0c-0.013,0-0.031,0-0.05,0c-0.391,0.031-0.708,0.33-0.757,0.717
			c-0.006,0.025-0.006,0.056-0.006,0.081l-0.652,8.205l-0.019,0.237c-0.099,0.574-0.596,1.01-1.198,1.01h-3.215
			c-0.608,0-1.111-0.449-1.204-1.035l-0.012-0.187l-0.652-8.218c-0.006-0.038-0.006-0.069-0.012-0.106
			c-0.05-0.38-0.366-0.673-0.751-0.698c-0.012,0-0.031,0-0.05,0c-0.012,0-0.031,0-0.05,0h-0.366l0,0
			c-0.596,0-1.093-0.43-1.198-0.998l-0.019-0.237l-0.701-7.844c0-1.041,0.844-1.889,1.881-1.889h9.51
			C1553.574,247.515,1554.419,248.363,1554.394,249.405z"/>
		<path fill="none" d="M1543.617,241.735c0,2.311,1.865,4.184,4.165,4.184c2.301,0,4.165-1.873,4.165-4.184
			s-1.865-4.184-4.165-4.184C1545.482,237.551,1543.617,239.425,1543.617,241.735z"/>
	</g>
	<g id="R8S">
		<path fill="none" d="M1515.923,238.88l16.651-3.586c0.415-0.089,0.846,0.045,1.138,0.355l6.897,7.339
			c0.623,0.663,0.328,1.753-0.543,2.008l-17.409,5.108c-0.501,0.147-1.039-0.044-1.337-0.474l-6.139-8.861
			C1514.686,240.055,1515.075,239.063,1515.923,238.88z M1522.888,248.397l16.022-4.685l-6.475-6.985l-15.461,3.415
			L1522.888,248.397z"/>
		<path fill="none" d="M1522.644,252.335l15.375-4.736l-1.174,11.361c0,0.509-0.323,0.962-0.804,1.124l-13.401,5.09
			c-0.509,0.172-1.068-0.021-1.364-0.471l-1.942-2.844c-0.127-0.194-0.195-0.421-0.195-0.653l-1.837-15.287l3.947,5.942
			C1521.564,252.304,1522.126,252.495,1522.644,252.335z"/>
		<path fill="none" d="M1531.349,238.586l-10.594,2.555l3.352,4.657l11.073-2.944L1531.349,238.586z"/>
	</g>
</g>
<g id="Room9">
	<g id="R9Number">
		<path fill="none" d="M1665.157,185.229c0-1.381,0.28-2.353,0.843-2.917c0.562-0.563,1.313-0.845,2.256-0.845
			c0.942,0,1.694,0.282,2.256,0.845c0.562,0.564,0.843,1.536,0.843,2.917v20.614c0,1.382-0.281,2.354-0.843,2.918
			c-0.562,0.564-1.314,0.845-2.256,0.845c-0.943,0-1.695-0.281-2.256-0.845c-0.562-0.563-0.843-1.535-0.843-2.918V185.229z
			 M1659.177,205.461c0,3.09,0.779,5.463,2.338,7.117c1.558,1.655,3.806,2.481,6.741,2.481s5.182-0.826,6.741-2.481
			c1.558-1.654,2.338-4.026,2.338-7.117v-19.85c0-3.09-0.78-5.462-2.338-7.117c-1.559-1.654-3.806-2.481-6.741-2.481
			s-5.183,0.827-6.741,2.481c-1.559,1.655-2.338,4.027-2.338,7.117V205.461z"/>
		<path fill="none" d="M1698.755,185.61c0-3.09-0.78-5.462-2.338-7.117c-1.559-1.654-3.806-2.481-6.741-2.481
			s-5.183,0.827-6.741,2.481c-1.559,1.655-2.338,4.027-2.338,7.117v6.98c0,2.836,0.552,4.999,1.658,6.49
			c1.105,1.491,2.763,2.236,4.975,2.236c2.645,0,4.494-1.127,5.545-3.381v6.98c0,1.818-0.29,3.054-0.87,3.708
			c-0.58,0.654-1.396,0.982-2.447,0.982c-0.943,0-1.695-0.281-2.256-0.845c-0.562-0.563-0.843-1.535-0.843-2.918v-1.363h-5.654
			v0.982c0,3.09,0.752,5.463,2.256,7.117c1.504,1.655,3.724,2.481,6.66,2.481c3.117,0,5.418-0.845,6.904-2.536
			c1.486-1.691,2.229-4.153,2.229-7.389V185.61z M1687.42,195.017c-0.562-0.563-0.843-1.536-0.843-2.918v-6.871
			c0-1.381,0.28-2.345,0.843-2.89c0.562-0.545,1.313-0.818,2.256-0.818c0.942,0,1.694,0.273,2.256,0.818
			c0.562,0.545,0.843,1.509,0.843,2.89v6.871c0,1.382-0.281,2.354-0.843,2.918c-0.562,0.564-1.314,0.845-2.256,0.845
			C1688.733,195.863,1687.981,195.581,1687.42,195.017z"/>
	</g>
	<path id="R9" fill="none" d="M1651.798,77.232l-23.342,15.676l-24.391-8.455c-33.848,22.631-56.89,62.752-56.89,106.605
		c0,64.695,48.536,118.016,111.088,125.373l-0.126,64.397l17.889,0.035v0.024h39.38V309.99
		c48.72-17.431,83.593-64.094,83.593-118.931c0-45.172-23.661-84.803-59.234-107.113l-62.996,16.662L1651.798,77.232"/>
	<g id="R9H">
		<path fill="none" d="M1671.13,354.636l0.714,7.921l0.013,0.119c0,0.006,0,0.006,0,0.013c0.088,0.587,0.602,1.037,1.216,1.037l0,0
			h0.364c0.012,0,0.031,0,0.05,0c0.013,0,0.031,0,0.05,0c0.395,0.031,0.715,0.331,0.765,0.718c0.006,0.025,0.006,0.056,0.006,0.081
			l0.658,8.221l0.019,0.237c0.1,0.575,0.602,1.012,1.209,1.012h3.247c0.614,0,1.122-0.45,1.216-1.037l0.013-0.187l0.658-8.234
			c0.006-0.038,0.006-0.069,0.013-0.106c0.05-0.381,0.37-0.675,0.758-0.7c0.012,0,0.031,0,0.05,0c0.013,0,0.031,0,0.05,0h0.37l0,0
			c0.602,0,1.103-0.431,1.21-1l0.019-0.237l0.708-7.859c0-1.043-0.852-1.893-1.899-1.893h-9.601
			C1671.958,352.743,1671.105,353.593,1671.13,354.636z"/>
		<path fill="none" d="M1682.01,346.952c0,2.315-1.883,4.192-4.205,4.192c-2.323,0-4.205-1.877-4.205-4.192s1.883-4.192,4.205-4.192
			C1680.127,342.761,1682.01,344.637,1682.01,346.952z"/>
	</g>
	<g id="R9S">
		<path fill="none" d="M1709.97,344.092l-16.811-3.593c-0.419-0.09-0.855,0.046-1.149,0.356l-6.963,7.353
			c-0.629,0.664-0.331,1.756,0.548,2.012l17.577,5.117c0.506,0.147,1.049-0.044,1.35-0.475l6.198-8.877
			C1711.22,345.269,1710.827,344.275,1709.97,344.092z M1702.939,353.627l-16.176-4.694l6.537-6.998l15.61,3.421L1702.939,353.627z"
			/>
		<path fill="none" d="M1703.185,357.573l-15.522-4.745l1.186,11.382c0,0.51,0.327,0.964,0.812,1.127l13.53,5.099
			c0.513,0.172,1.079-0.022,1.377-0.472l1.961-2.849c0.128-0.194,0.197-0.422,0.197-0.654l1.855-15.316l-3.985,5.954
			C1704.276,357.541,1703.709,357.732,1703.185,357.573z"/>
		<path fill="none" d="M1694.396,343.797l10.696,2.56l-3.384,4.666l-11.18-2.949L1694.396,343.797z"/>
	</g>
</g>
<g id="Room10">
	<g id="R10Number">
		<path fill="none" d="M1418.725,316.31h4.621v29.121h5.98v-38.174h-4.023c-0.217,0.654-0.471,1.273-0.761,1.854
			c-0.291,0.582-0.671,1.091-1.142,1.527c-0.471,0.436-1.079,0.782-1.821,1.036c-0.743,0.255-1.695,0.382-2.854,0.382V316.31z"/>
		<path fill="none" d="M1442.047,316.038c0-1.381,0.28-2.353,0.843-2.918c0.562-0.563,1.313-0.845,2.256-0.845
			c0.942,0,1.694,0.282,2.256,0.845c0.561,0.564,0.843,1.536,0.843,2.918v20.614c0,1.382-0.281,2.354-0.843,2.918
			c-0.562,0.564-1.314,0.845-2.256,0.845c-0.943,0-1.695-0.281-2.256-0.845c-0.562-0.563-0.843-1.535-0.843-2.918V316.038z
			 M1436.067,336.27c0,3.09,0.779,5.463,2.338,7.117c1.558,1.655,3.806,2.481,6.741,2.481s5.183-0.826,6.741-2.481
			c1.558-1.654,2.338-4.026,2.338-7.117v-19.85c0-3.09-0.78-5.462-2.338-7.117c-1.559-1.654-3.806-2.481-6.741-2.481
			s-5.183,0.827-6.741,2.481c-1.559,1.655-2.338,4.027-2.338,7.117V336.27z"/>
	</g>
	<path id="R10" fill="none" d="M1093.294,234.025V381h535.594v-34.872c-16.627,3.944-30.74,5.654-42.894,5.654
		c-40.029,0-58.711-18.58-75.16-37.156c-16.45-18.578-30.675-37.157-61.81-37.157c-0.618,0-1.243,0.007-1.875,0.022
		c-34.635,0.811-61.127,21.255-112.48,21.255c-1.677,0-3.387-0.022-5.117-0.067c-54.742-1.425-77.452-22.909-118.285-38.454
		C1170.434,244.681,1093.294,234.025,1093.294,234.025"/>
	<g id="R10H">
		<path fill="none" d="M1379.507,316.33l-0.708,7.906l-0.013,0.118c0,0.006,0,0.006,0,0.012c-0.087,0.586-0.596,1.035-1.204,1.035
			l0,0h-0.36c-0.012,0-0.031,0-0.05,0c-0.012,0-0.031,0-0.05,0c-0.391,0.031-0.708,0.33-0.757,0.717
			c-0.006,0.025-0.006,0.056-0.006,0.081l-0.652,8.206l-0.019,0.237c-0.099,0.574-0.596,1.01-1.198,1.01h-3.216
			c-0.608,0-1.111-0.449-1.204-1.035l-0.012-0.187l-0.652-8.218c-0.006-0.038-0.006-0.069-0.012-0.106
			c-0.05-0.38-0.366-0.673-0.751-0.698c-0.012,0-0.031,0-0.05,0c-0.012,0-0.031,0-0.05,0h-0.366l0,0
			c-0.596,0-1.093-0.43-1.198-0.998l-0.018-0.237l-0.701-7.844c0-1.041,0.844-1.889,1.881-1.889h9.51
			C1378.688,314.441,1379.532,315.289,1379.507,316.33z"/>
		<path fill="none" d="M1368.731,308.661c0,2.311,1.865,4.184,4.165,4.184c2.3,0,4.165-1.873,4.165-4.184
			c0-2.311-1.865-4.184-4.165-4.184C1370.596,304.477,1368.731,306.35,1368.731,308.661z"/>
	</g>
	<g id="R10S">
		<path fill="none" d="M1341.037,305.806l16.651-3.586c0.415-0.089,0.846,0.045,1.138,0.355l6.897,7.339
			c0.623,0.663,0.328,1.753-0.543,2.008l-17.409,5.108c-0.501,0.147-1.039-0.044-1.337-0.474l-6.139-8.861
			C1339.799,306.98,1340.189,305.989,1341.037,305.806z M1348.001,315.323l16.022-4.685l-6.475-6.985l-15.461,3.415
			L1348.001,315.323z"/>
		<path fill="none" d="M1347.758,319.261l15.375-4.735l-1.175,11.361c0,0.509-0.324,0.962-0.804,1.124l-13.401,5.09
			c-0.508,0.172-1.068-0.021-1.364-0.471l-1.942-2.844c-0.127-0.194-0.195-0.421-0.195-0.653l-1.837-15.287l3.947,5.942
			C1346.677,319.23,1347.24,319.421,1347.758,319.261z"/>
		<path fill="none" d="M1356.463,305.511l-10.594,2.555l3.352,4.657l11.073-2.944L1356.463,305.511z"/>
	</g>
</g>
</svg>
